<svg width="24" height="24" viewBox="0 0 24 24" fill="none" xmlns="http://www.w3.org/2000/svg">
<path d="M12 0C8.51067 0 5.67188 2.8388 5.67188 6.32812C5.67188 9.81745 8.51067 12.6562 12 12.6562C15.4893 12.6562 18.3281 9.81745 18.3281 6.32812C18.3281 2.8388 15.4893 0 12 0Z" fill="#726E84"/>
<path d="M19.8734 16.7904C18.1409 15.0313 15.8442 14.0625 13.4062 14.0625H10.5938C8.15588 14.0625 5.85909 15.0313 4.12659 16.7904C2.40258 18.5409 1.45312 20.8515 1.45312 23.2969C1.45312 23.6852 1.76794 24 2.15625 24H21.8438C22.2321 24 22.5469 23.6852 22.5469 23.2969C22.5469 20.8515 21.5974 18.5409 19.8734 16.7904Z" fill="#726E84"/>
</svg>
