<svg width="24" height="24" viewBox="0 0 24 24" fill="none" xmlns="http://www.w3.org/2000/svg">
<mask id="mask0_2341_22481" style="mask-type:alpha" maskUnits="userSpaceOnUse" x="0" y="0" width="24" height="24">
<rect width="24" height="24" fill="#D9D9D9"/>
</mask>
<g mask="url(#mask0_2341_22481)">
<path d="M14 12C14 12.2833 13.904 12.5207 13.712 12.712C13.5207 12.904 13.2833 13 13 13L9.85 13L10.75 13.9C10.9333 14.0833 11.025 14.3123 11.025 14.587C11.025 14.8623 10.925 15.1 10.725 15.3C10.525 15.5 10.2833 15.5957 10 15.587C9.71667 15.579 9.475 15.475 9.275 15.275L6.7 12.7C6.6 12.6 6.52933 12.4917 6.488 12.375C6.446 12.2583 6.425 12.1333 6.425 12C6.425 11.8667 6.446 11.7417 6.488 11.625C6.52933 11.5083 6.6 11.4 6.7 11.3L9.3 8.7C9.5 8.5 9.73733 8.4 10.012 8.4C10.2873 8.4 10.525 8.5 10.725 8.7C10.925 8.9 11.025 9.13733 11.025 9.412C11.025 9.68733 10.925 9.925 10.725 10.125L9.85 11L13 11C13.2833 11 13.5207 11.0957 13.712 11.287C13.904 11.479 14 11.7167 14 12ZM21 19C21 19.55 20.8043 20.021 20.413 20.413C20.021 20.8043 19.55 21 19 21L5 21C4.45 21 3.979 20.8043 3.587 20.413C3.19567 20.021 3 19.55 3 19L3 5C3 4.45 3.19567 3.979 3.587 3.587C3.979 3.19567 4.45 3 5 3L19 3C19.55 3 20.021 3.19567 20.413 3.587C20.8043 3.979 21 4.45 21 5L21 19ZM16 12C16 11.5 15.879 11.025 15.637 10.575C15.3957 10.125 15.0167 9.74167 14.5 9.425C14.35 9.34167 14.229 9.225 14.137 9.075C14.0457 8.925 14 8.75 14 8.55L14 5L5 5L5 19L14 19L14 15.45C14 15.25 14.0457 15.075 14.137 14.925C14.229 14.775 14.35 14.6583 14.5 14.575C15.0167 14.2583 15.3957 13.875 15.637 13.425C15.879 12.975 16 12.5 16 12Z" fill="#726E84"/>
</g>
</svg>
